{
  "files": {
    "main.css": "/static/css/main.e88b7b2b.chunk.css",
    "main.js": "/static/js/main.e26d64e9.chunk.js",
    "main.js.map": "/static/js/main.e26d64e9.chunk.js.map",
    "runtime-main.js": "/static/js/runtime-main.ba247209.js",
    "runtime-main.js.map": "/static/js/runtime-main.ba247209.js.map",
    "static/css/2.9e5c3921.chunk.css": "/static/css/2.9e5c3921.chunk.css",
    "static/js/2.afbcf350.chunk.js": "/static/js/2.afbcf350.chunk.js",
    "static/js/2.afbcf350.chunk.js.map": "/static/js/2.afbcf350.chunk.js.map",
    "index.html": "/index.html",
    "precache-manifest.872e92c612e17b2b7098de9124bcf9ee.js": "/precache-manifest.872e92c612e17b2b7098de9124bcf9ee.js",
    "service-worker.js": "/service-worker.js",
    "static/css/2.9e5c3921.chunk.css.map": "/static/css/2.9e5c3921.chunk.css.map",
    "static/css/main.e88b7b2b.chunk.css.map": "/static/css/main.e88b7b2b.chunk.css.map",
    "static/js/2.afbcf350.chunk.js.LICENSE.txt": "/static/js/2.afbcf350.chunk.js.LICENSE.txt",
    "static/media/avatarDefault.png": "/static/media/avatarDefault.54e9ec53.png",
    "static/media/Home.css": "/static/media/main-search-background-01.1cf47466.jpg",
    "static/media/phone_market.png": "/static/media/phone_market.d55496da.png",
    "static/media/planet.jpg": "/static/media/planet.6a3c59dd.jpg",
    "static/media/rus.svg": "/static/media/rus.7a8b3a7d.svg",
    "static/media/ukraine.svg": "/static/media/ukraine.1aeecd60.svg",
    "static/media/usa.svg": "/static/media/usa.aefba3fe.svg"
  },
  "entrypoints": [
    "static/js/runtime-main.ba247209.js",
    "static/css/2.9e5c3921.chunk.css",
    "static/js/2.afbcf350.chunk.js",
    "static/css/main.e88b7b2b.chunk.css",
    "static/js/main.e26d64e9.chunk.js"
  ]
}